umiAnalyzer vignette
…
simsen <- filterUmiobject(
  object = simsen, name = "myfilter", minDepth = 3,
  minCoverage = 100, minFreq = 0, minCount = 0
)

myfilter <- getFilterdData(object = simsen, name = "myfilter")
myfilter
#> $myfilter
#> # A tibble: 1,686 x 18
#>    `Sample Name` Contig Position Name  Reference     A     C     G     T
#>    <chr>         <chr>     <dbl> <chr> <chr>     <dbl> <dbl> <dbl> <dbl>
#>  1 VAF-1-5ng-1-~ chr17   7673746 TP53~ T             0     0     0  2809
#>  2 VAF-1-5ng-1-~ chr17   7673747 TP53~ C             0  2809     0     0
#>  3 VAF-1-5ng-1-~ chr17   7673748 TP53~ T             1     0     0  2808
#>  4 VAF-1-5ng-1-~ chr17   7673749 TP53~ T             0     0     0  2809
#>  5 VAF-1-5ng-1-~ chr17   7673750 TP53~ G             0     0  2809     0
#>  6 VAF-1-5ng-1-~ chr17   7673751 TP53~ C             0  2810     0     0
#>  7 VAF-1-5ng-1-~ chr17   7673752 TP53~ G             0     0  2810     0
#>  8 VAF-1-5ng-1-~ chr17   7673753 TP53~ G             0     0  2810     0
#>  9 VAF-1-5ng-1-~ chr17   7673754 TP53~ A          2810     0     0     0
#> 10 VAF-1-5ng-1-~ chr17   7673755 TP53~ G             0     0  2809     1
#> # ... with 1,676 more rows, and 9 more variables: I <dbl>, D <dbl>,
#> #   N <dbl>, Coverage <dbl>, `Consensus group size` <dbl>, `Max Non-ref
#> #   Allele Count` <dbl>, `Max Non-ref Allele Frequency` <dbl>, `Max
#> #   Non-ref Allele` <chr>, sample <chr>
…
simsen@merged.data
#> # A tibble: 562 x 18
#> # Groups:   Name, Contig, Position, Reference [?]
#>    Name  Contig Position Reference replicate avg.A   avg.T   avg.C   avg.G
#>    <chr> <chr>  <fct>    <chr>     <fct>     <dbl>   <dbl>   <dbl>   <dbl>
#>  1 KIT_~ chr4   54733142 G         1         0.405 8.06e-1 0.      7.57e+3
#>  2 KIT_~ chr4   54733142 G         2         0.825 1.64e+0 2.71e-1 7.57e+3
#>  3 KIT_~ chr4   54733143 G         1         1.19  0.      0.      7.58e+3
#>  4 KIT_~ chr4   54733143 G         2         1.65  2.81e-1 0.      7.58e+3
#>  5 KIT_~ chr4   54733144 T         1         0     7.58e+3 0.      0.     
#>  6 KIT_~ chr4   54733144 T         2         0     7.58e+3 0.      2.74e-1
#>  7 KIT_~ chr4   54733145 C         1         0     0.      7.58e+3 4.02e-1
#>  8 KIT_~ chr4   54733145 C         2         0     8.32e-1 7.58e+3 0.     
#>  9 KIT_~ chr4   54733146 T         1         0     7.58e+3 0.      0.     
#> 10 KIT_~ chr4   54733146 T         2         0     7.58e+3 0.      0.     
#> # ... with 552 more rows, and 9 more variables: avg.N <dbl>, avg.I <dbl>,
#> #   avg.D <dbl>, avg.Depth <dbl>, std.Depth <dbl>, avg.Max.AF <dbl>,
#> #   std.MaxAF <dbl>, avg.MaxAC <dbl>, std.MaxAC <dbl>
…
